<svg xmlns="http://www.w3.org/2000/svg" xmlns:xlink="http://www.w3.org/1999/xlink" width="148" height="148" viewBox="0 0 148 148">
  <defs>
    <filter id="Path_11917" x="0" y="0" width="148" height="148" filterUnits="userSpaceOnUse">
      <feOffset dy="10" input="SourceAlpha"/>
      <feGaussianBlur stdDeviation="5" result="blur"/>
      <feFlood flood-opacity="0.161"/>
      <feComposite operator="in" in2="blur"/>
      <feComposite in="SourceGraphic"/>
    </filter>
  </defs>
  <g id="Group_1552" data-name="Group 1552" transform="translate(-3293 -1690)">
    <g transform="matrix(1, 0, 0, 1, 3293, 1690)" filter="url(#Path_11917)">
      <g id="Path_11917-2" data-name="Path 11917" transform="translate(15 5)" fill="#851b82">
        <path d="M 59 116.5 C 51.23688507080078 116.5 43.70678329467773 114.9799194335938 36.61886596679688 111.9819869995117 C 33.21208190917969 110.5410308837891 29.92611694335938 108.7574462890625 26.85224914550781 106.6808013916016 C 23.80719947814941 104.6235961914063 20.94373321533203 102.2610015869141 18.34136581420898 99.65863037109375 C 15.73900032043457 97.05626678466797 13.37639999389648 94.19280242919922 11.31919956207275 91.14775085449219 C 9.242549896240234 88.07388305664063 7.458966732025146 84.78791809082031 6.018016815185547 81.38113403320313 C 3.020083427429199 74.293212890625 1.5 66.76311492919922 1.5 59 C 1.5 51.23688507080078 3.020083427429199 43.70678329467773 6.018016815185547 36.61886596679688 C 7.458966732025146 33.21208190917969 9.242549896240234 29.92611694335938 11.31919956207275 26.85224914550781 C 13.37639999389648 23.80719947814941 15.73900032043457 20.94373321533203 18.34136581420898 18.34136581420898 C 20.94373321533203 15.73900032043457 23.80719947814941 13.37639999389648 26.85224914550781 11.31919956207275 C 29.92611694335938 9.242549896240234 33.21208190917969 7.458966732025146 36.61886596679688 6.018016815185547 C 43.70678329467773 3.020083427429199 51.23688507080078 1.5 59 1.5 C 66.76311492919922 1.5 74.293212890625 3.020083427429199 81.38113403320313 6.018016815185547 C 84.78791809082031 7.458966732025146 88.07388305664063 9.242549896240234 91.14775085449219 11.31919956207275 C 94.19280242919922 13.37639999389648 97.05626678466797 15.73900032043457 99.65863037109375 18.34136581420898 C 102.2610015869141 20.94373321533203 104.6235961914063 23.80719947814941 106.6808013916016 26.85224914550781 C 108.7574462890625 29.92611694335938 110.5410308837891 33.21208190917969 111.9819869995117 36.61886596679688 C 114.9799194335938 43.70678329467773 116.5 51.23688507080078 116.5 59 C 116.5 66.76311492919922 114.9799194335938 74.293212890625 111.9819869995117 81.38113403320313 C 110.5410308837891 84.78791809082031 108.7574462890625 88.07388305664063 106.6808013916016 91.14775085449219 C 104.6235961914063 94.19280242919922 102.2610015869141 97.05626678466797 99.65863037109375 99.65863037109375 C 97.05626678466797 102.2610015869141 94.19280242919922 104.6235961914063 91.14775085449219 106.6808013916016 C 88.07388305664063 108.7574462890625 84.78791809082031 110.5410308837891 81.38113403320313 111.9819869995117 C 74.293212890625 114.9799194335938 66.76311492919922 116.5 59 116.5 Z" stroke="none"/>
        <path d="M 59 3 C 51.43872833251953 3 44.10521697998047 4.480216979980469 37.20320129394531 7.399528503417969 C 33.88559722900391 8.802742004394531 30.68556213378906 10.53971099853516 27.69196319580078 12.56214904785156 C 24.72602081298828 14.56588745117188 21.93687438964844 16.86716461181641 19.40201568603516 19.40201568603516 C 16.86716461181641 21.93687438964844 14.56588745117188 24.72602081298828 12.56214904785156 27.69196319580078 C 10.53971099853516 30.68556213378906 8.802742004394531 33.88559722900391 7.399528503417969 37.20320129394531 C 4.480216979980469 44.10521697998047 3 51.43872833251953 3 59 C 3 66.56127166748047 4.480216979980469 73.89478302001953 7.399528503417969 80.79679870605469 C 8.802742004394531 84.11439514160156 10.53971099853516 87.31443786621094 12.56214904785156 90.30803680419922 C 14.56588745117188 93.27397918701172 16.86716461181641 96.06312561035156 19.40201568603516 98.59798431396484 C 21.93687438964844 101.1328353881836 24.72602081298828 103.4341125488281 27.69196319580078 105.4378509521484 C 30.68556213378906 107.4602890014648 33.88559722900391 109.1972503662109 37.20320129394531 110.600471496582 C 44.10521697998047 113.5197830200195 51.43872833251953 115 59 115 C 66.56127166748047 115 73.89478302001953 113.5197830200195 80.79679870605469 110.600471496582 C 84.11439514160156 109.1972503662109 87.31443786621094 107.4602890014648 90.30803680419922 105.4378509521484 C 93.27397918701172 103.4341125488281 96.06312561035156 101.1328353881836 98.59798431396484 98.59798431396484 C 101.1328353881836 96.06312561035156 103.4341125488281 93.27397918701172 105.4378509521484 90.30803680419922 C 107.4602890014648 87.31443786621094 109.1972503662109 84.11439514160156 110.600471496582 80.79679870605469 C 113.5197830200195 73.89478302001953 115 66.56127166748047 115 59 C 115 51.43872833251953 113.5197830200195 44.10521697998047 110.600471496582 37.20320129394531 C 109.1972503662109 33.88559722900391 107.4602890014648 30.68556213378906 105.4378509521484 27.69196319580078 C 103.4341125488281 24.72602081298828 101.1328353881836 21.93687438964844 98.59798431396484 19.40201568603516 C 96.06312561035156 16.86716461181641 93.27397918701172 14.56588745117188 90.30803680419922 12.56214904785156 C 87.31443786621094 10.53971099853516 84.11439514160156 8.802742004394531 80.79679870605469 7.399528503417969 C 73.89478302001953 4.480216979980469 66.56127166748047 3 59 3 M 59 0 C 91.58480072021484 0 118 26.41519927978516 118 59 C 118 91.58480072021484 91.58480072021484 118 59 118 C 26.41519927978516 118 0 91.58480072021484 0 59 C 0 26.41519927978516 26.41519927978516 0 59 0 Z" stroke="none" fill="#fff"/>
      </g>
    </g>
    <g id="Group_1495" data-name="Group 1495" transform="translate(2121 1288.932)">
      <path id="Path_11860" data-name="Path 11860" d="M0,12.863,17.191,0" transform="translate(1213.144 447.063) rotate(13)" fill="none" stroke="#fff" stroke-width="3"/>
      <path id="Path_11862" data-name="Path 11862" d="M0,6.986,20.1,0" transform="translate(1262.535 448.246) rotate(13)" fill="none" stroke="#fff" stroke-width="3"/>
      <path id="Path_11861" data-name="Path 11861" d="M0,11.885,10.4,0" transform="translate(1249.688 444.69) rotate(71)" fill="none" stroke="#fff" stroke-width="3"/>
      <g id="Ellipse_335" data-name="Ellipse 335" transform="translate(1229.027 442.568) rotate(13)" fill="none" stroke="#fff" stroke-width="3">
        <ellipse cx="5.942" cy="5.942" rx="5.942" ry="5.942" stroke="none"/>
        <ellipse cx="5.942" cy="5.942" rx="4.442" ry="4.442" fill="none"/>
      </g>
      <g id="Ellipse_336" data-name="Ellipse 336" transform="translate(1252.189 447.915) rotate(13)" fill="none" stroke="#fff" stroke-width="3">
        <ellipse cx="5.942" cy="5.942" rx="5.942" ry="5.942" stroke="none"/>
        <ellipse cx="5.942" cy="5.942" rx="4.442" ry="4.442" fill="none"/>
      </g>
      <path id="Path_11863" data-name="Path 11863" d="M9486.832,392.038l21.681-6.07,20.378,6.07,19.512-7.913" transform="translate(-8272.464 76.447)" fill="none" stroke="#fff" stroke-width="3"/>
      <g id="Ellipse_337" data-name="Ellipse 337" transform="translate(1253.62 463.391) rotate(13)" fill="none" stroke="#fff" stroke-width="3">
        <ellipse cx="3.34" cy="3.341" rx="3.34" ry="3.341" stroke="none"/>
        <ellipse cx="3.34" cy="3.341" rx="1.84" ry="1.841" fill="none"/>
      </g>
      <g id="Ellipse_340" data-name="Ellipse 340" transform="translate(1274.431 455.586) rotate(13)" fill="none" stroke="#fff" stroke-width="3">
        <ellipse cx="3.34" cy="3.341" rx="3.34" ry="3.341" stroke="none"/>
        <ellipse cx="3.34" cy="3.341" rx="1.84" ry="1.841" fill="none"/>
      </g>
      <g id="Ellipse_338" data-name="Ellipse 338" transform="translate(1232.807 458.188) rotate(13)" fill="none" stroke="#fff" stroke-width="3">
        <ellipse cx="3.34" cy="3.341" rx="3.34" ry="3.341" stroke="none"/>
        <ellipse cx="3.34" cy="3.341" rx="1.84" ry="1.841" fill="none"/>
      </g>
      <g id="Ellipse_339" data-name="Ellipse 339" transform="translate(1214.597 463.391) rotate(13)" fill="none" stroke="#fff" stroke-width="3">
        <ellipse cx="3.34" cy="3.341" rx="3.34" ry="3.341" stroke="none"/>
        <ellipse cx="3.34" cy="3.341" rx="1.84" ry="1.841" fill="none"/>
      </g>
      <path id="Path_11864" data-name="Path 11864" d="M9489.917,389v21.679" transform="translate(-8264.924 85.555)" fill="none" stroke="#fff" stroke-linecap="round" stroke-width="3"/>
      <path id="Path_11865" data-name="Path 11865" d="M9489.917,389v24.281" transform="translate(-8249.314 82.953)" fill="none" stroke="#fff" stroke-linecap="round" stroke-width="3"/>
      <path id="Path_11866" data-name="Path 11866" d="M9489.917,389v17.56" transform="translate(-8233.706 90.758)" fill="none" stroke="#fff" stroke-linecap="round" stroke-width="3"/>
      <path id="Path_11867" data-name="Path 11867" d="M9490,389v21.679" transform="translate(-8220.564 85.555)" fill="none" stroke="#fff" stroke-linecap="round" stroke-width="3"/>
    </g>
  </g>
</svg>
